<?xml version="1.0" encoding="utf-8"?>
<!-- Generator: Adobe Illustrator 18.1.0, SVG Export Plug-In . SVG Version: 6.00 Build 0)  -->
<svg version="1.1" id="Layer_1" xmlns="http://www.w3.org/2000/svg" xmlns:xlink="http://www.w3.org/1999/xlink" x="0px" y="0px"
	 viewBox="0 0 25.4 16" enable-background="new 0 0 25.4 16" xml:space="preserve">
<g>
	<polygon fill="#ACACAC" points="12.7,8 25.4,0.4 25.4,0 0,0 0,0.4 	"/>
	<polygon fill="#ACACAC" points="12.7,10.1 0,2.4 0,16 25.4,16 25.4,2.4 	"/>
</g>
</svg>
