<?xml version="1.0" encoding="utf-8"?>
<!-- Generator: Adobe Illustrator 18.1.0, SVG Export Plug-In . SVG Version: 6.00 Build 0)  -->
<svg version="1.1" id="Layer_1" xmlns="http://www.w3.org/2000/svg" xmlns:xlink="http://www.w3.org/1999/xlink" x="0px" y="0px"
	 viewBox="0 0 20 29" enable-background="new 0 0 20 29" xml:space="preserve">
<g>
	<path fill="#363636" d="M10,29l-1-1.1C2.4,21,0.6,14.3,0.1,11.8c-0.7-4.2,1.2-7,2.3-8.3C4.4,1.2,7.2,0,10,0c2.8,0,5.6,1.2,7.5,3.4
		c1.2,1.4,3,4.2,2.4,8.3c-0.5,2.6-2.2,9.2-8.9,16.2L10,29z M10,2.8c-2,0-4,0.9-5.4,2.5c-1,1.2-2.1,3.2-1.7,6
		c0.4,2.1,1.8,7.6,7.1,13.5c5.3-6,6.7-11.4,7.1-13.6c0.4-2.8-0.7-4.8-1.7-6C14,3.7,12.1,2.8,10,2.8z"/>
</g>
<g>
	<circle fill="#363636" cx="10" cy="10" r="3.5"/>
</g>
</svg>
