<?xml version="1.0" encoding="utf-8"?>
<!-- Generator: Adobe Illustrator 18.1.0, SVG Export Plug-In . SVG Version: 6.00 Build 0)  -->
<svg version="1.1" id="Layer_2" xmlns="http://www.w3.org/2000/svg" xmlns:xlink="http://www.w3.org/1999/xlink" x="0px" y="0px"
	 viewBox="0 0 18 18" enable-background="new 0 0 18 18" xml:space="preserve">
<g>
	<path fill="#BCBCBC" d="M10.8,14.4c-1.9,0-3.7-0.7-5.1-2.1S3.6,9.1,3.6,7.2c0-1.9,0.7-3.7,2.1-5.1C7.1,0.7,8.9,0,10.8,0
		s3.7,0.7,5.1,2.1C17.3,3.5,18,5.3,18,7.2c0,1.9-0.7,3.7-2.1,5.1S12.7,14.4,10.8,14.4z M10.8,1.8C9.4,1.8,8,2.3,7,3.4
		S5.4,5.8,5.4,7.2C5.4,8.6,5.9,10,7,11s2.4,1.6,3.8,1.6s2.8-0.6,3.8-1.6s1.6-2.4,1.6-3.8c0-1.4-0.6-2.8-1.6-3.8S12.2,1.8,10.8,1.8z"
		/>
</g>
<g>
	<path fill="#BCBCBC" d="M0.9,18c-0.2,0-0.5-0.1-0.6-0.3c-0.3-0.3-0.3-0.9,0-1.3l5.2-5.2c0.3-0.3,0.9-0.3,1.3,0
		c0.3,0.3,0.3,0.9,0,1.3l-5.2,5.2C1.3,17.9,1.1,18,0.9,18z"/>
</g>
</svg>
